{
  "stdin_port": 60930, 
  "ip": "127.0.0.1", 
  "control_port": 33220, 
  "hb_port": 47888, 
  "signature_scheme": "hmac-sha256", 
  "key": "09730545-afce-428b-9f5e-3e20bb1ab657", 
  "shell_port": 41496, 
  "transport": "tcp", 
  "iopub_port": 37637
}